﻿{
    "AnimatedSprites": null,
    "Cursors": [
        {
            "Path": "Arrow.psd",
            "UUID": "4c1c6cf4-7d37-46f1-9263-a8f0d498b7e0"
        },
        {
            "Path": "ArrowDrag.psd",
            "UUID": "2eebb0e7-4d21-43d5-9349-d2b0c71aabbe"
        },
        {
            "Path": "ArrowLeftRight.psd",
            "UUID": "23830d8f-f81f-4141-9b61-e0414b5e3f58"
        },
        {
            "Path": "Deny.psd",
            "UUID": "caba0f11-d080-4876-b832-9d664adac056"
        },
        {
            "Path": "IBeam.psd",
            "UUID": "38e6a064-8225-4126-8198-7892af7fedd0"
        },
        {
            "Path": "SizeNESW.psd",
            "UUID": "a7ac5600-acc8-4692-b149-a52cd4116af7"
        },
        {
            "Path": "SizeNS.psd",
            "UUID": "1f8930d0-953c-4575-b453-5a3bd62b4873"
        },
        {
            "Path": "SizeNWSE.psd",
            "UUID": "7ff92ce5-cba0-4846-a1b2-1249e67c371a"
        },
        {
            "Path": "SizeWE.psd",
            "UUID": "dfcb4a8a-f213-4697-9b61-4cc4368f530f"
        },
        {
            "Path": "Wait.psd",
            "UUID": "7ad1fc24-5e08-489c-8cd4-02b4e452a412"
        }
    ],
    "Fonts": [
        {
            "Antialiasing": false,
            "Name": "arial.ttf",
            "Path": "arial.ttf",
            "Sizes": [
                8
            ],
            "UUID": "c9f08cab-f9c9-47c4-96e0-1066a8d4455b"
        }
    ],
    "GUISkin": {
        "Path": "GUISkin.json",
        "UUID": "c1bf9a9d-4355-4841-a538-25e67730ec4b"
    },
    "Icons": [
        {
            "Path": "bsfIcon.png",
            "UUID": "fc1a1c8f-4242-c2e9-728b-42429f5b7cd2"
        }
    ],
    "Includes": [
        {
            "Path": "PerCameraData.bslinc",
            "UUID": "c1e4d309-8c20-4fd4-bf14-eb129af39d4e"
        },
        {
            "Path": "PerObjectData.bslinc",
            "UUID": "ed07f3ce-3abd-4379-b8f0-4c884af524a7"
        },
        {
            "Path": "PPBase.bslinc",
            "UUID": "44dc42de-410a-4949-a2e8-cb451a416481"
        },
        {
            "Path": "PPTonemapCommon.bslinc",
            "UUID": "a5d1c354-a05d-45b4-bccf-2f88db9aecb0"
        },
        {
            "Path": "PPWhiteBalance.bslinc",
            "UUID": "b46d1cee-75f7-4387-8b32-7eb646f099f4"
        },
        {
            "Path": "ReflectionCubemapCommon.bslinc",
            "UUID": "eef92578-b8ed-45d6-8eed-d85697ade3c5"
        },
        {
            "Path": "VolumeRenderBase.bslinc",
            "UUID": "6d0dfe4e-45ef-4fe1-9344-33b8b9e69048"
        },
        {
            "Path": "SurfaceData.bslinc",
            "UUID": "3364cb35-9140-4571-8fae-d5648ae7386f"
        },
        {
            "Path": "BasePass.bslinc",
            "UUID": "ec1d3d37-5509-4bcb-9be2-93208d6ae224"
        },
        {
            "Path": "LightGridCommon.bslinc",
            "UUID": "26caf86e-433c-4ade-9bc5-55c136d82912"
        },
        {
            "Path": "SHCommon.bslinc",
            "UUID": "b2a3ecfd-77d7-4a4c-900b-91c3804f4a58"
        },
        {
            "Path": "ImageBasedLighting.bslinc",
            "UUID": "ff162afd-ed4d-4460-8982-ad6c0f7be19c"
        },
        {
            "Path": "GBufferInput.bslinc",
            "UUID": "d481b49b-a60b-4d0d-bd8c-c3ed9c53fc6c"
        },
        {
            "Path": "GBufferOutput.bslinc",
            "UUID": "46df32e8-6400-46d5-9ac2-beefdc9016ad"
        },
        {
            "Path": "ShadowDepthBase.bslinc",
            "UUID": "ff6f2a9d-6766-4f80-984b-c159a5fd3c5e"
        },
        {
            "Path": "DeferredLightCommon.bslinc",
            "UUID": "8ffd1df9-3de4-442d-adca-95e8766fa81a"
        },
        {
            "Path": "ShadowProjectionCommon.bslinc",
            "UUID": "36da8807-b201-482b-b320-96f5300d1751"
        },
        {
            "Path": "PPGaussianDOFCommon.bslinc",
            "UUID": "78521453-a352-4fd8-b997-8e58942dee2d"
        },
        {
            "Path": "RayMarch.bslinc",
            "UUID": "c64f9bee-c0c2-442e-9f59-35da0494e827"
        },
        {
            "Path": "ColorSpace.bslinc",
            "UUID": "9fc44e5a-b23f-4002-bd2e-793cf0d03c32"
        },
        {
            "Path": "TemporalResolve.bslinc",
            "UUID": "b0ce01c2-3326-445e-bf2b-35cf8d9d6e1b"
        },
        {
            "Path": "ImportanceSampling.bslinc",
            "UUID": "52a46920-860e-4d05-a7c3-34e926b02664"
        },
        {
            "Path": "PPEyeAdaptationCommon.bslinc",
            "UUID": "1a0c4fb5-49b6-7eb8-28b8-49b698a6b7fe"
        },
        {
            "Path": "VertexInput.bslinc",
            "UUID": "2d0dc7e6-46bf-03bb-f48d-46bf25dda973"
        },
        {
            "Path": "DirectLightAccumulator.bslinc",
            "UUID": "71fa057c-4f77-8bb0-acb3-4f77cb467414"
        },
        {
            "Path": "ReflProbeAccumulator.bslinc",
            "UUID": "72a07be3-4949-b48c-449b-49491e752f8a"
        },
        {
            "Path": "ForwardLighting.bslinc",
            "UUID": "bf35f9b3-4c48-30bc-d480-4c48cb444517"
        },
        {
            "Path": "DirectLighting.bslinc",
            "UUID": "efdae4c9-40bd-5983-ada9-40bda7a45f55"
        },
        {
            "Path": "PerFrameData.bslinc",
            "UUID": "64225149-43b6-698e-809e-43b647d8d09d"
        },
        {
            "Path": "ParticleVertex.bslinc",
            "UUID": "c830bfdf-4e45-56a3-46b2-4e4598d3b312"
        },
        {
            "Path": "RadixSortCommon.bslinc",
            "UUID": "944603e9-4407-32cb-69a8-44078adaeceb"
        },
        {
            "Path": "GpuParticleTileVertex.bslinc",
            "UUID": "a6943ff6-4123-4bbc-d397-4123245a6cae"
        },
        {
            "Path": "VertexCommon.bslinc",
            "UUID": "7f6cf98d-48da-efc9-c1a2-48da18703e92"
        },
        {
            "Path": "DepthInput.bslinc",
            "UUID": "06b077c9-432d-43b1-8884-432d5ddfe878"
        },
        {
            "Path": "MaskInput.bslinc",
            "UUID": "e69b8e15-4301-f0fb-11ad-430140d3a7d6"
        },
        {
            "Path": "ShapingCommon.bslinc",
            "UUID": "3d40728a-454c-0618-cb8d-454c0d8b9d07"
        },
        {
            "Path": "PPGaussianBlurCommon.bslinc",
            "UUID": "5fcd03a8-489b-a141-a2b6-489b4995ad59"
        }
    ],
    "Shaders": [
        {
            "Path": "Blit.bsl",
            "UUID": "7953ba8a-6fc6-43ad-a472-cce558105cde"
        },
        {
            "Path": "Default.bsl",
            "UUID": "a8e36d37-d6f7-4117-bbba-31dca716c8a3"
        },
        {
            "Path": "Diffuse.bsl",
            "UUID": "4e2b2437-0a02-456c-8d98-71df27ccf697"
        },
        {
            "Path": "PPCreateTonemapLUT.bsl",
            "UUID": "766adb8c-1302-4f2d-a26f-6a0f8ff6b147"
        },
        {
            "Path": "PPDownsample.bsl",
            "UUID": "c1a11fc5-f7b4-422d-a359-70be6dac05ef"
        },
        {
            "Path": "PPEyeAdaptation.bsl",
            "UUID": "6baa01c8-fe61-4613-9fa9-a9ae045dfc64"
        },
        {
            "Path": "PPEyeAdaptHistogram.bsl",
            "UUID": "5414fffc-a96c-4a8a-86e3-c24050d14363"
        },
        {
            "Path": "PPEyeAdaptHistogramReduce.bsl",
            "UUID": "4c98431b-bd58-4160-8ff0-7d12add946fa"
        },
        {
            "Path": "PPTonemapping.bsl",
            "UUID": "cbe752ea-301a-47aa-b8ae-2f35d103595c"
        },
        {
            "Path": "PPTonemapping.bsl",
            "UUID": "36366f4c-3584-4dbf-9c2b-bb2638438b33"
        },
        {
            "Path": "PPTonemapping.bsl",
            "UUID": "520d9228-c7b5-492e-bd08-1fdc7e033ea8"
        },
        {
            "Path": "PPTonemapping.bsl",
            "UUID": "a8aa01e7-7e72-4f84-89f8-a0097250b0d3"
        },
        {
            "Path": "Skybox.bsl",
            "UUID": "b1c191fa-0c24-4987-8d3b-72b17511621d"
        },
        {
            "Path": "SpriteLine.bsl",
            "UUID": "3a9e31a8-cbef-49ac-af2a-2dc200372d36"
        },
        {
            "Path": "SpriteText.bsl",
            "UUID": "25df2c87-c206-4c2f-ab2b-3aad9e7f90f1"
        },
        {
            "Path": "TiledDeferredLighting.bsl",
            "UUID": "787d7293-f335-4eda-a897-c706e6b5c818"
        },
        {
            "Path": "LightGridLLCreation.bsl",
            "UUID": "097acd4f-9eeb-4a25-bbd8-e3ee31118a0f"
        },
        {
            "Path": "LightGridLLReduction.bsl",
            "UUID": "d190e4e1-5ea9-4961-9ee3-b5df218cb5e6"
        },
        {
            "Path": "Transparent.bsl",
            "UUID": "10db2029-145c-424e-8399-2be48aa66680"
        },
        {
            "Path": "ReflectionCubeDownsample.bsl",
            "UUID": "0efe7fe5-f7da-4ac8-a634-522bf6791dad"
        },
        {
            "Path": "ReflectionCubeImportanceSample.bsl",
            "UUID": "ed16fdd9-7982-4f5c-ae63-8303c786e9ad"
        },
        {
            "Path": "IrradianceComputeSH.bsl",
            "UUID": "5b431ac7-c97a-407e-9ca3-6845d6cd0d6c"
        },
        {
            "Path": "IrradianceProjectSH.bsl",
            "UUID": "64d9535e-b5e7-42f5-8dc4-c0b15a5c48b9"
        },
        {
            "Path": "IrradianceReduceSH.bsl",
            "UUID": "aa40f2be-00e4-4322-a4bf-e435528f1e6e"
        },
        {
            "Path": "TiledDeferredImageBasedLighting.bsl",
            "UUID": "6029db14-107f-43df-9a33-7105c56aa0fd"
        },
        {
            "Path": "ShadowDepthCube.bsl",
            "UUID": "285c7b78-053a-4763-899e-8e11b5d4dac7"
        },
        {
            "Path": "ShadowDepthNormal.bsl",
            "UUID": "c9b64475-375d-410e-8cd4-e1b1181318d4"
        },
        {
            "Path": "ShadowDepthDirectional.bsl",
            "UUID": "acd0f016-8084-4b32-806c-66a85b34ee5a"
        },
        {
            "Path": "DeferredDirectionalLight.bsl",
            "UUID": "17d573f8-1142-4257-9e32-90038d3786f3"
        },
        {
            "Path": "DeferredPointLight.bsl",
            "UUID": "428d9fde-9838-4367-9857-57bd80c8f599"
        },
        {
            "Path": "ShadowProject.bsl",
            "UUID": "93667cf9-c699-4d92-ba20-6e2e912f76fa"
        },
        {
            "Path": "ShadowProjectOmni.bsl",
            "UUID": "50447773-98e9-410c-8f64-eacbb9622c52"
        },
        {
            "Path": "ShadowProjectStencil.bsl",
            "UUID": "c8625547-f5e7-43df-85cf-4da6e1806cf9"
        },
        {
            "Path": "PPGaussianBlur.bsl",
            "UUID": "14b16378-6282-4d2d-bc4c-2d662cc98066"
        },
        {
            "Path": "PPGaussianDOFSeparate.bsl",
            "UUID": "78285aaa-a862-46f3-837c-d13abbe8b351"
        },
        {
            "Path": "PPGaussianDOFCombine.bsl",
            "UUID": "2743e8f1-97cf-4441-b9e4-aad280343901"
        },
        {
            "Path": "PPBuildHiZ.bsl",
            "UUID": "1b314248-1965-49c5-968b-ae923c2af717"
        },
        {
            "Path": "PPFXAA.bsl",
            "UUID": "f064b202-dbc0-440f-bd9f-37f094b2c521"
        },
        {
            "Path": "PPSSAO.bsl",
            "UUID": "7a65b0f1-9a37-452e-ba3f-2a1fb58362cb"
        },
        {
            "Path": "PPSSAODownsample.bsl",
            "UUID": "c06a649a-646e-48cf-89fc-f97e46f75264"
        },
        {
            "Path": "PPSSAOBlur.bsl",
            "UUID": "46c7f742-a02d-4e1f-b121-047cd62a6d4d"
        },
        {
            "Path": "PPSSRTrace.bsl",
            "UUID": "daadcf73-1ae5-4f8f-90e5-a6e538832304"
        },
        {
            "Path": "PPSSRStencil.bsl",
            "UUID": "a9eb5ddf-1196-48d8-9403-a80a9595cde0"
        },
        {
            "Path": "PPSSRResolve.bsl",
            "UUID": "86b9699c-162d-4729-9985-c94e0f45bacb"
        },
        {
            "Path": "TetrahedraRender.bsl",
            "UUID": "5912b0ab-b2be-4c0e-a039-91fcc2d3e536"
        },
        {
            "Path": "IrradianceEvaluate.bsl",
            "UUID": "6f6ed59d-b94b-428e-91bc-82c94ed48892"
        },
        {
            "Path": "Clear.bsl",
            "UUID": "5a325167-5bab-4925-8b50-95434448930f"
        },
        {
            "Path": "DebugDraw.bsl",
            "UUID": "6d3eb44e-b7e9-4c5a-8f8c-e5695607ca13"
        },
        {
            "Path": "PPEncodeDepth.bsl",
            "UUID": "8bbf989a-9f8d-4864-8332-7f8c499685ba"
        },
        {
            "Path": "MSAACoverage.bsl",
            "UUID": "151465e1-e123-475d-97f5-77bc04bc15ce"
        },
        {
            "Path": "MSAACoverageStencil.bsl",
            "UUID": "f4344aa8-d286-4f10-b25d-a76302487fa8"
        },
        {
            "Path": "IrradianceAccumulateCubeSH.bsl",
            "UUID": "92c3b1a4-4f21-6566-7cbe-4f21bcc8e0aa"
        },
        {
            "Path": "IrradianceAccumulateSH.bsl",
            "UUID": "c52783b0-4974-f349-0fae-4974f81eb485"
        },
        {
            "Path": "IrradianceComputeSHFrag.bsl",
            "UUID": "cc8139f7-4a48-4a74-2691-4a48e288b8dd"
        },
        {
            "Path": "PPEyeAdaptationBasic.bsl",
            "UUID": "b00f745f-4d40-5ebf-bcae-4d40161ceb6b"
        },
        {
            "Path": "PPEyeAdaptationBasicSetup.bsl",
            "UUID": "86cda288-4fd5-4d0f-a5a2-4fd56d3b92ea"
        },
        {
            "Path": "DeferredIBLFinalize.bsl",
            "UUID": "5973a208-4956-8ea4-85af-495668744158"
        },
        {
            "Path": "DeferredIBLProbe.bsl",
            "UUID": "76dd3c87-4cea-7066-9182-4ceade228448"
        },
        {
            "Path": "DeferredIBLSetup.bsl",
            "UUID": "115c9291-4260-606d-1098-426042ea073a"
        },
        {
            "Path": "DeferredIBLSky.bsl",
            "UUID": "e3c4e19e-4d65-dd20-bca1-4d65a0b9980b"
        },
        {
            "Path": "ShadowDepthNormalNoPS.bsl",
            "UUID": "5335edda-c14c-0158-d73e-f880d58d0596"
        },
        {
            "Path": "ParticlesUnlit.bsl",
            "UUID": "cf6ba550-40b3-6e4e-55ab-40b3abd077f1"
        },
        {
            "Path": "RadixSortCount.bsl",
            "UUID": "63499594-43a3-71da-64bf-43a3a5efe7ac"
        },
        {
            "Path": "RadixSortPrefixScan.bsl",
            "UUID": "6c0c0b72-4e01-6863-fa8d-4e01a4df8046"
        },
        {
            "Path": "RadixSortReorder.bsl",
            "UUID": "0dd1ac91-402a-9e2e-2ba1-402a77f5efda"
        },
        {
            "Path": "ClearLoadStore.bsl",
            "UUID": "1e87bcc7-4477-7234-1482-4477d48e52d4"
        },
        {
            "Path": "TextureArrayToMSAATexture.bsl",
            "UUID": "a99d5d8d-4daa-3ced-a99b-4daa6fe91297"
        },
        {
            "Path": "GpuParticleClear.bsl",
            "UUID": "75174c83-4231-d406-ffbe-423122141e61"
        },
        {
            "Path": "GpuParticleInject.bsl",
            "UUID": "d9df7b26-4eec-3e02-2f8c-4eec7782b461"
        },
        {
            "Path": "GpuParticleSimulate.bsl",
            "UUID": "95e03c75-4b53-ec71-4686-4b53d4367cd4"
        },
        {
            "Path": "GpuParticleBounds.bsl",
            "UUID": "ba7c69fd-4b9b-3fc4-888a-4b9b29180376"
        },
        {
            "Path": "GpuParticleCurveInject.bsl",
            "UUID": "65877027-40ba-0789-cd8a-40ba393eec73"
        },
        {
            "Path": "GpuParticleSortPrepare.bsl",
            "UUID": "a7de4e11-4de4-8ddc-8585-4de4d39a91b9"
        },
        {
            "Path": "RadixSortClear.bsl",
            "UUID": "26e580ba-4b0c-5872-dcb6-4b0c47c5eda8"
        },
        {
            "Path": "ParticlesLit.bsl",
            "UUID": "dca4932c-472b-bf22-ecbe-472bb581143d"
        },
        {
            "Path": "ParticlesLitOpaque.bsl",
            "UUID": "520813e4-4e15-b067-72ae-4e15d603d443"
        },
        {
            "Path": "PPBloomClip.bsl",
            "UUID": "0a832da9-47df-8c7d-268a-47dfcd36cc48"
        },
        {
            "Path": "Decal.bsl",
            "UUID": "8d448d61-463b-84fe-d0a1-463b897090a3"
        },
        {
            "Path": "SpriteImage.bsl",
            "UUID": "430d9f0c-491b-d499-a994-491bfb3a1907"
        },
        {
            "Path": "PPScreenSpaceLensFlare.bsl",
            "UUID": "77a9c58f-4f0c-b1db-6294-4f0c85c504db"
        },
        {
            "Path": "Composite.bsl",
            "UUID": "9035d668-46c0-ba4a-75b0-46c0cf3c64e7"
        },
        {
            "Path": "BicubicUpsample.bsl",
            "UUID": "b690e22c-45a1-6cda-3cb1-45a1a944984e"
        }
    ],
    "Skin": [
        {
            "Path": "ButtonActive.png",
            "SpriteUUID": "4b1deba9-af84-43ab-a9eb-d9a79f52962c",
            "TextureUUID": "51c3a4c6-3060-402d-9412-ba686b7907d5"
        },
        {
            "Path": "ButtonHover.png",
            "SpriteUUID": "710ab76c-702c-402f-a1bb-e3c180105a3c",
            "TextureUUID": "a6748d8f-5310-4732-a8e6-10ab948bce7b"
        },
        {
            "Path": "ButtonNormal.png",
            "SpriteUUID": "094326be-9c04-4031-90d1-c2b8ac3b2a9e",
            "TextureUUID": "910b7a3e-115f-4c46-888e-f0b642c07613"
        },
        {
            "Path": "DropDownBoxArrowDownHover.png",
            "SpriteUUID": "3096fd0b-a964-428a-a220-0a8a4f3f6264",
            "TextureUUID": "303020d5-6af6-4e92-81d6-4574e237e7ee"
        },
        {
            "Path": "DropDownBoxArrowDownNormal.png",
            "SpriteUUID": "71e5136e-ea1b-4297-aed9-891678e3c0e7",
            "TextureUUID": "fec60788-a47f-46ee-90a9-29a5ac71b899"
        },
        {
            "Path": "DropDownBoxArrowUpHover.png",
            "SpriteUUID": "0bbf87d4-c412-4336-bef3-744771594648",
            "TextureUUID": "bd78ac65-6ec7-4d80-b414-31992e0f1b9d"
        },
        {
            "Path": "DropDownBoxArrowUpNormal.png",
            "SpriteUUID": "7a4f1a4e-c07a-4283-809c-13599a4fdabf",
            "TextureUUID": "2010e471-a623-4e1c-8b7e-107d2926b0dd"
        },
        {
            "Path": "DropDownBoxBg.png",
            "SpriteUUID": "40a8dd33-26bc-42a5-899b-962fcd8f5bfa",
            "TextureUUID": "a380dde4-e929-4e09-8eb3-3c9f4d1bdee6"
        },
        {
            "Path": "DropDownBoxEntryHover.png",
            "SpriteUUID": "c0dc00b7-ba21-45f4-a9cc-acb923b1da7c",
            "TextureUUID": "190d5968-64be-460a-9861-e8f4f9cae68d"
        },
        {
            "Path": "DropDownBoxEntryNormal.png",
            "SpriteUUID": "8aad937c-499d-4935-bd7d-d9389aed4f33",
            "TextureUUID": "1070d714-83a2-4d15-860b-c3607ff5a3e0"
        },
        {
            "Path": "DropDownBoxEntryToggleHover.png",
            "SpriteUUID": "4f0bfa04-ccfb-11e6-9d9d-cec0c932ce01",
            "TextureUUID": "4f0bfd7e-ccfb-11e6-9d9d-cec0c932ce01"
        },
        {
            "Path": "DropDownBoxEntryToggleHoverOn.png",
            "SpriteUUID": "4f0c0292-ccfb-11e6-9d9d-cec0c932ce01",
            "TextureUUID": "4f0c04fe-ccfb-11e6-9d9d-cec0c932ce01"
        },
        {
            "Path": "DropDownBoxEntryToggleNormal.png",
            "SpriteUUID": "4f0c06b6-ccfb-11e6-9d9d-cec0c932ce01",
            "TextureUUID": "4f0c0864-ccfb-11e6-9d9d-cec0c932ce01"
        },
        {
            "Path": "DropDownBoxEntryToggleNormalOn.png",
            "SpriteUUID": "4f0c0a12-ccfb-11e6-9d9d-cec0c932ce01",
            "TextureUUID": "4f0c0bca-ccfb-11e6-9d9d-cec0c932ce01"
        },
        {
            "Path": "DropDownBoxExpandBtnHover.png",
            "SpriteUUID": "94748c7b-dc27-44dd-8798-22f76ea69b36",
            "TextureUUID": "a079167a-d28f-4c28-a75c-be6ffca2f39a"
        },
        {
            "Path": "DropDownBoxExpandBtnNormal.png",
            "SpriteUUID": "aa18bb97-3393-47e9-88b5-5460c3076b83",
            "TextureUUID": "0b2417af-281d-46b1-8f76-66875c04eb98"
        },
        {
            "Path": "DropDownBoxScrollHandle.png",
            "SpriteUUID": "7f29b25d-2615-4a68-8085-5da7484b6dab",
            "TextureUUID": "74fbf74b-f296-4c2d-9ec6-15a29120372a"
        },
        {
            "Path": "DropDownBoxSeparator.png",
            "SpriteUUID": "7a91e73d-7982-40c9-a2f3-356b1b1356b4",
            "TextureUUID": "0dee08fe-3f2e-452b-8ec4-26923148b365"
        },
        {
            "Path": "DropDownBoxSideBg.png",
            "SpriteUUID": "9cc6ecda-5535-4e2d-9a31-7548552fb85d",
            "TextureUUID": "041cacb8-4368-4c37-acf3-e5ad50394cfe"
        },
        {
            "Path": "DropDownButtonActive.png",
            "SpriteUUID": "6ea86ad8-7fa1-49c9-bd8d-fd8b751840d3",
            "TextureUUID": "5b90999e-dcab-40b7-9081-ab770b590090"
        },
        {
            "Path": "DropDownButtonHover.png",
            "SpriteUUID": "c6e974fc-f7e7-4b7a-a7f8-c7ca319bb40d",
            "TextureUUID": "809762ea-337b-4eae-bc5e-a135266c7a4d"
        },
        {
            "Path": "DropDownButtonNormal.png",
            "SpriteUUID": "b897e03d-78fc-43b5-a41b-98b8d20deeab",
            "TextureUUID": "627102cf-ad03-4766-bf56-82231a17fbb8"
        },
        {
            "Path": "InputBoxActive.png",
            "SpriteUUID": "44aaada3-05c6-45d1-bb56-56c379c74f5c",
            "TextureUUID": "a249502e-258d-4202-98f9-448193478d0f"
        },
        {
            "Path": "InputBoxHover.png",
            "SpriteUUID": "a75bbffd-cf3a-47f5-8d0c-3bc55171d8d0",
            "TextureUUID": "b03edeb6-4e22-4296-aad2-9816a7ba0d4d"
        },
        {
            "Path": "InputBoxNormal.png",
            "SpriteUUID": "e4b076be-1527-49b9-9b1d-7aa20f8c3e04",
            "TextureUUID": "21887ed4-19c6-4748-81c6-ae86737e53f9"
        },
        {
            "Path": "ScrollArrowDownActive.png",
            "SpriteUUID": "597b9cbf-ae13-458e-bb49-f58d1a03dc34",
            "TextureUUID": "f7fa3bf5-019a-4e97-ba98-2e064a76504b"
        },
        {
            "Path": "ScrollArrowDownHover.png",
            "SpriteUUID": "778f44b2-6838-4b27-94ea-e2758e3ba607",
            "TextureUUID": "499885b7-03ac-4e57-b985-b024e567e497"
        },
        {
            "Path": "ScrollArrowDownNormal.png",
            "SpriteUUID": "bf29509d-42e7-4419-9c2f-d13e724fcad5",
            "TextureUUID": "e847475e-e12c-4c04-a0f9-2ac6a4ac4e3b"
        },
        {
            "Path": "ScrollArrowLeftActive.png",
            "SpriteUUID": "e0b1eb29-e30e-4b17-9070-10fa3385b6f3",
            "TextureUUID": "2838ea6d-dcf8-41b1-8cd5-e17685c8d539"
        },
        {
            "Path": "ScrollArrowLeftHover.png",
            "SpriteUUID": "62ddc954-5d60-40e7-ba68-487266e18acc",
            "TextureUUID": "6c0b8f12-d250-4988-b380-bc253b9408a6"
        },
        {
            "Path": "ScrollArrowLeftNormal.png",
            "SpriteUUID": "cdf5ee62-8466-4527-a5be-01c39cf758a9",
            "TextureUUID": "bcbf65ba-58af-41b7-a6e5-b18f2ccb806e"
        },
        {
            "Path": "ScrollArrowRightActive.png",
            "SpriteUUID": "9fa51060-439f-43b3-bf88-f217a25175af",
            "TextureUUID": "9331b7be-ad3e-4422-81d3-f04dfdd9fc6e"
        },
        {
            "Path": "ScrollArrowRightHover.png",
            "SpriteUUID": "854a447f-459f-49e5-bbc5-594bab7dec60",
            "TextureUUID": "0350fba6-773c-4410-b9e1-4840c88210c2"
        },
        {
            "Path": "ScrollArrowRightNormal.png",
            "SpriteUUID": "dc3853f7-d852-42ab-87c3-5152273e6f22",
            "TextureUUID": "0327097a-e372-41e4-8061-1de4f1e59c2c"
        },
        {
            "Path": "ScrollArrowUpActive.png",
            "SpriteUUID": "4f2746c8-ca7c-45ea-9ded-c6175103a202",
            "TextureUUID": "29f4be13-6b63-4409-a9ad-2d67896468ce"
        },
        {
            "Path": "ScrollArrowUpHover.png",
            "SpriteUUID": "73ba26b4-9006-47f5-97e3-e1ec13412e65",
            "TextureUUID": "da6b0a0f-2c15-4439-815d-626b7e245704"
        },
        {
            "Path": "ScrollArrowUpNormal.png",
            "SpriteUUID": "0fecba6f-f25b-40f4-9d25-44ed6d49b5b2",
            "TextureUUID": "a7055810-cf81-4d8c-9617-14cdcb3f1dd1"
        },
        {
            "Path": "ScrollBarHBackground.png",
            "SpriteUUID": "4f1e25e0-a813-46b0-b658-ef43055e5906",
            "TextureUUID": "9f0c2a63-6977-477c-86e7-cc4c0f86649d"
        },
        {
            "Path": "ScrollBarHHandleActive.png",
            "SpriteUUID": "92fa9af8-a061-4c95-b8dd-0551854ec8de",
            "TextureUUID": "6d3d7024-507a-47c6-a9e2-db4af5bf21b0"
        },
        {
            "Path": "ScrollBarHHandleHover.png",
            "SpriteUUID": "f460a868-9dff-4147-ac4e-caeaa4187e05",
            "TextureUUID": "fa4ea09d-bf35-4c92-8324-770e84e7c071"
        },
        {
            "Path": "ScrollBarHHandleNormal.png",
            "SpriteUUID": "6e2f9f25-88ad-4256-bf68-5ca80ecd2db1",
            "TextureUUID": "7b0c9474-d0ea-4370-894c-bc4386f6fa8b"
        },
        {
            "Path": "ScrollBarHHandleResizeableActive.png",
            "SpriteUUID": "1828219c-cd06-11e6-9d9d-cec0c932ce01",
            "TextureUUID": "18282476-cd06-11e6-9d9d-cec0c932ce01"
        },
        {
            "Path": "ScrollBarHHandleResizeableHover.png",
            "SpriteUUID": "1828278c-cd06-11e6-9d9d-cec0c932ce01",
            "TextureUUID": "18282b24-cd06-11e6-9d9d-cec0c932ce01"
        },
        {
            "Path": "ScrollBarHHandleResizeableNormal.png",
            "SpriteUUID": "18282c00-cd06-11e6-9d9d-cec0c932ce01",
            "TextureUUID": "18282cd2-cd06-11e6-9d9d-cec0c932ce01"
        },
        {
            "Path": "ScrollBarVBackground.png",
            "SpriteUUID": "b37d3e5b-891a-4950-a4f9-3f8fa820d40a",
            "TextureUUID": "18bd26ea-dc4e-4277-bef7-83a6ba57a137"
        },
        {
            "Path": "ScrollBarVHandleActive.png",
            "SpriteUUID": "40125cc7-3b3d-454c-b1ed-6e3d0b3ffe0c",
            "TextureUUID": "2d6c3301-55bd-4dd2-8f78-9099c8167b9e"
        },
        {
            "Path": "ScrollBarVHandleHover.png",
            "SpriteUUID": "cb559a44-4b34-47e2-9308-344af1957a99",
            "TextureUUID": "6728125e-b299-4b80-a788-c80d3671724f"
        },
        {
            "Path": "ScrollBarVHandleNormal.png",
            "SpriteUUID": "3d44c9c9-9bdd-48ab-97b1-4a7e929edb46",
            "TextureUUID": "98f70a3b-8da7-44b0-85d1-6aae294df9dc"
        },
        {
            "Path": "ScrollBarVHandleResizeableActive.png",
            "SpriteUUID": "3ae0a6a0-cd06-11e6-9d9d-cec0c932ce01",
            "TextureUUID": "3ae0aa60-cd06-11e6-9d9d-cec0c932ce01"
        },
        {
            "Path": "ScrollBarVHandleResizeableHover.png",
            "SpriteUUID": "3ae0ae0c-cd06-11e6-9d9d-cec0c932ce01",
            "TextureUUID": "3ae0afd8-cd06-11e6-9d9d-cec0c932ce01"
        },
        {
            "Path": "ScrollBarVHandleResizeableNormal.png",
            "SpriteUUID": "3ae0b230-cd06-11e6-9d9d-cec0c932ce01",
            "TextureUUID": "3ae0b3f2-cd06-11e6-9d9d-cec0c932ce01"
        },
        {
            "Path": "SliderHandleActive.png",
            "SpriteUUID": "1ede5e0e-ccff-11e6-9d9d-cec0c932ce01",
            "TextureUUID": "1ede6138-ccff-11e6-9d9d-cec0c932ce01"
        },
        {
            "Path": "SliderHandleHover.png",
            "SpriteUUID": "1ede62aa-ccff-11e6-9d9d-cec0c932ce01",
            "TextureUUID": "1ede6430-ccff-11e6-9d9d-cec0c932ce01"
        },
        {
            "Path": "SliderHandleNormal.png",
            "SpriteUUID": "1ede650c-ccff-11e6-9d9d-cec0c932ce01",
            "TextureUUID": "1ede6958-ccff-11e6-9d9d-cec0c932ce01"
        },
        {
            "Path": "SliderHBackground.png",
            "SpriteUUID": "1ede6b24-ccff-11e6-9d9d-cec0c932ce01",
            "TextureUUID": "1ede6cb4-ccff-11e6-9d9d-cec0c932ce01"
        },
        {
            "Path": "SliderHFill.png",
            "SpriteUUID": "1ede6d90-ccff-11e6-9d9d-cec0c932ce01",
            "TextureUUID": "1ede6ef8-ccff-11e6-9d9d-cec0c932ce01"
        },
        {
            "Path": "SliderVBackground.png",
            "SpriteUUID": "1ede70ce-ccff-11e6-9d9d-cec0c932ce01",
            "TextureUUID": "1ede71b4-ccff-11e6-9d9d-cec0c932ce01"
        },
        {
            "Path": "SliderVFill.png",
            "SpriteUUID": "1ede736c-ccff-11e6-9d9d-cec0c932ce01",
            "TextureUUID": "1ede7448-ccff-11e6-9d9d-cec0c932ce01"
        },
        {
            "Path": "ToggleHover.png",
            "SpriteUUID": "daa9fd29-4228-47ca-8b9e-39636f0b566c",
            "TextureUUID": "df341eda-d4b5-4940-9871-d39e4f90fbfc"
        },
        {
            "Path": "ToggleHoverOn.png",
            "SpriteUUID": "820ec0f3-4129-4db2-9042-13bf11c09fce",
            "TextureUUID": "9d66b8d0-9469-4e72-90bd-a705373211a8"
        },
        {
            "Path": "ToggleNormal.png",
            "SpriteUUID": "381c8648-595b-4533-9861-e8b38ea671e2",
            "TextureUUID": "5f947c87-5636-493d-9348-bfdbcf5a6edc"
        },
        {
            "Path": "ToggleNormalOn.png",
            "SpriteUUID": "15c41e2f-8f91-477d-af73-8085cd6699c9",
            "TextureUUID": "34751e54-1376-410b-b7b7-958f8770f8e9"
        },
        {
            "Path": "White.psd",
            "SpriteUUID": "46bc0d6b-5cf0-4edc-bc5f-e0a06b8b04c2",
            "TextureUUID": "723670c8-f634-435f-8887-001a6791226a"
        },
        {
            "Path": "ButtonFocused.png",
            "SpriteUUID": "57ce5eab-4310-79ad-3496-43107442c389",
            "TextureUUID": "9dd24478-446e-8e10-82a8-446eca04620b"
        },
        {
            "Path": "DropDownButtonFocused.png",
            "SpriteUUID": "42d60331-4169-b6cc-41b2-4169ae0b6a85",
            "TextureUUID": "7a3671b1-4ccb-e6ee-05a5-4ccb9ac57a06"
        },
        {
            "Path": "SliderHBackgroundFocused.png",
            "SpriteUUID": "ae02917b-436c-90f4-f584-436cb29932ac",
            "TextureUUID": "346fef92-4524-dcdc-879c-4524dec1d093"
        },
        {
            "Path": "SliderVBackgroundFocused.png",
            "SpriteUUID": "9030b1e8-4d48-5ff9-d298-4d48b86e4632",
            "TextureUUID": "8c887b69-4f8d-6a65-8ab5-4f8dd2247c26"
        },
        {
            "Path": "ToggleFocused.png",
            "SpriteUUID": "530f1b5d-410c-ba94-b095-410c4b4e6da1",
            "TextureUUID": "06795729-437c-24f7-9088-437c1feea5aa"
        },
        {
            "Path": "ToggleFocusedOn.png",
            "SpriteUUID": "69a7b28d-4a9a-fa1d-dab6-4a9a881a91f8",
            "TextureUUID": "e0d4afc2-4ba6-e6a5-57aa-4ba69061df71"
        },
        {
            "Path": "ButtonFocusedHover.png",
            "SpriteUUID": "89e494c9-4d6a-ae0e-0b96-4d6adec391ef",
            "TextureUUID": "8bf1494e-4943-01d0-2a90-4943001f3f69"
        },
        {
            "Path": "ToggleFocusedHover.png",
            "SpriteUUID": "e9224fb0-4a2c-ab11-a4ab-4a2c9536bc40",
            "TextureUUID": "7964c3a7-4366-a859-d09c-4366a8874f0a"
        },
        {
            "Path": "ToggleFocusedHoverOn.png",
            "SpriteUUID": "22a9c0b4-4d53-2113-fb97-4d53f1c43859",
            "TextureUUID": "106417e8-4dc3-ab1f-efad-4dc35feb6df3"
        },
        {
            "Path": "DropDownButtonFocusedHover.png",
            "SpriteUUID": "6ff54b8e-4f01-bc8c-fd8d-4f01a316065b",
            "TextureUUID": "138dc6d2-497e-8376-bc87-497e0cafc1d1"
        }
    ],
    "SplashScreen": null,
    "SpriteIcons": null,
    "SpriteIcons3D": null
}
